…
d <- tibble(time = t,
            temp_mean = temp_mean,
            temp_upper95 = temp_upper95,
            temp_lower95 = temp_lower95,
            forecasted = as.logical(forecasted),
            obs = obs[, depth_index])

d
```

    ## # A tibble: 113 x 6
    ##    time                temp_mean temp_upper95 temp_lower95 forecasted   obs
    ##    <dttm>                  <dbl>        <dbl>        <dbl> <lgl>      <dbl>
    ##  1 2018-07-12 07:00:00      26.9         28.3         25.6 FALSE       26.9
    ##  2 2018-07-13 07:00:00      27.5         27.6         27.5 FALSE       27.7
    ##  3 2018-07-14 07:00:00      27.7         27.7         27.6 FALSE       27.7
    ##  4 2018-07-15 07:00:00      27.6         27.7         27.6 FALSE       27.5
    ##  5 2018-07-16 07:00:00      27.9         27.9         27.9 FALSE       27.6
    ##  6 2018-07-17 07:00:00      27.9         27.9         27.9 FALSE       28.1
    ##  7 2018-07-18 07:00:00      28.1         28.1         28.1 FALSE       28.0
    ##  8 2018-07-19 07:00:00      27.5         27.6         27.5 FALSE       27.6
    ##  9 2018-07-20 07:00:00      27.1         27.1         27.1 FALSE       27.2
    ## 10 2018-07-21 07:00:00      26.6         26.6         26.5 FALSE       26.7
    ## # … with 103 more rows
…
